Applied Predictive Modeling Blog – Nested Resampling with rsample
…
set.seed(9815)
train_dat <- sim_data(100)
large_dat <- sim_data(10^5)

To get started, the types of resampling methods need to be specified. This isn’t a large data set, so 5 repeats of 10-fold cross validation will be used as the outer resampling method that will be used to generate the estimate of overall performance. To tune the model, it would be good to have precise estimates for each of the values of the tuning parameter so 25 iterations of the bootstrap will be used. This means that there will eventually be 5 * 10 * 25 = 1250 models that are fit to the data per tuning parameter. These will be discarded once the performance of the model has been quantified.

To create the tibble with the resampling specifications:

results <- nested_cv(train_dat, 
                     outside = vfold_cv(repeats = 5), 
                     inside = bootstraps(25))
results
## # 10-fold cross-validation repeated 5 times 
## # Nested : vfold_cv(repeats = 5) / bootstraps(25) 
## # A tibble: 50 x 4
##          splits      id    id2   inner_resamples
##          <list>   <chr>  <chr>            <list>
##  1 <S3: rsplit> Repeat1 Fold01 <tibble [25 x 2]>
##  2 <S3: rsplit> Repeat1 Fold02 <tibble [25 x 2]>
##  3 <S3: rsplit> Repeat1 Fold03 <tibble [25 x 2]>
##  4 <S3: rsplit> Repeat1 Fold04 <tibble [25 x 2]>
##  5 <S3: rsplit> Repeat1 Fold05 <tibble [25 x 2]>
##  6 <S3: rsplit> Repeat1 Fold06 <tibble [25 x 2]>
##  7 <S3: rsplit> Repeat1 Fold07 <tibble [25 x 2]>
##  8 <S3: rsplit> Repeat1 Fold08 <tibble [25 x 2]>
##  9 <S3: rsplit> Repeat1 Fold09 <tibble [25 x 2]>
## 10 <S3: rsplit> Repeat1 Fold10 <tibble [25 x 2]>
## # ... with 40 more rows

The splitting information for each resample is contained in the split objects. Focusing on the second fold of the first repeat:

results$splits[[2]]
## <90/10/100>

<90/10/100> indicates the number of data in the analysis set, assessment set, and the original data.

Each element of inner_resamples has its own tibble with the bootstrapping splits.

results$inner_resamples[[5]]
## # Bootstrap sampling with 25 resamples 
## # A tibble: 25 x 2
##          splits          id
##          <list>       <chr>
##  1 <S3: rsplit> Bootstrap01
##  2 <S3: rsplit> Bootstrap02
##  3 <S3: rsplit> Bootstrap03
##  4 <S3: rsplit> Bootstrap04
##  5 <S3: rsplit> Bootstrap05
##  6 <S3: rsplit> Bootstrap06
##  7 <S3: rsplit> Bootstrap07
##  8 <S3: rsplit> Bootstrap08
##  9 <S3: rsplit> Bootstrap09
## 10 <S3: rsplit> Bootstrap10
## # ... with 15 more rows
…
