Applied Predictive Modeling Blog – Tidy Resampling Redux with Agricultural Economics Data
…
First, duplicate the process of reading in the data and adding two new columns:

stocks  <- read.csv('http://blog.mindymallory.com/wp-content/uploads/2018/02/stocks.csv') %>% 
  as_tibble() %>%
  mutate(
    USStockUse = USEndingStocks/USTotalUse, 
    WorldStockUse = ROWEndingStocks/WorldTotalUse
  )
stocks

## # A tibble: 43 x 8
##     Year USEndingStocks ROWEndingStocks USTotalUse
##    <int>          <dbl>           <int>      <dbl>
##  1  1975           633.           36411      5767.
##  2  1976          1136.           39491      5789.
##  3  1977          1436.           40833      6207.
##  4  1978          1710.           47957      6995.
##  5  1979          2034.           59481      7604.
##  6  1980          1392.           67180      7282.
##  7  1981          2537.           62725      6975.
##  8  1982          3523.           60273      7249.
##  9  1983          1006.           63421      6693.
## 10  1984          1648.           76287      7032.
## # ... with 33 more rows, and 4 more variables:
## #   WorldTotalUse <int>, PriceRecievedFarmers <dbl>,
## #   USStockUse <dbl>, WorldStockUse <dbl>
…
The analysis data are those that we selected in the resample. For a bootstrap, this is the sample with replacement. For 5-fold cross-validation, this is the 80% of the data. These data are often used to fit a model or calculate a statistic in traditional bootstrapping.

The assessment data are usually the section of the original data not covered by the analysis set. Again, in 5-fold CV, this is the 20% held out. These data are often used to evaluate the performance of a model that was fit to the analysis data.

To get these partitions for the first split there are functions analysis and assessment that return the appropriate data frames when given an rsplit:

# printing just shows the #rows per analysis/assessment/overall
resamp_info$splits[[1]]

## <34/9/43>

# data used for modeling:
analysis(resamp_info$splits[[1]])

## # A tibble: 34 x 8
##     Year USEndingStocks ROWEndingStocks USTotalUse
##    <int>          <dbl>           <int>      <dbl>
##  1  1975           633.           36411      5767.
##  2  1976          1136.           39491      5789.
##  3  1977          1436.           40833      6207.
##  4  1979          2034.           59481      7604.
##  5  1980          1392.           67180      7282.
##  6  1981          2537.           62725      6975.
##  7  1982          3523.           60273      7249.
##  8  1983          1006.           63421      6693.
##  9  1984          1648.           76287      7032.
## 10  1985          4040.           75069      6494.
## # ... with 24 more rows, and 4 more variables:
## #   WorldTotalUse <int>, PriceRecievedFarmers <dbl>,
## #   USStockUse <dbl>, WorldStockUse <dbl>
…
